User-Id,First-Name,Last-Name,Rating
0,FirstName 0,LastName 0,31
1,FirstName 1,LastName 1,225
2,FirstName 2,LastName 2,154
3,FirstName 3,LastName 3,199
4,FirstName 4,LastName 4,141
5,FirstName 5,LastName 5,102
6,FirstName 6,LastName 6,13
7,FirstName 7,LastName 7,10
8,FirstName 8,LastName 8,222
9,FirstName 9,LastName 9,235
